%YAML 1.1
%TAG !u! tag:unity3d.com,2011:
--- !u!1001 &3501724954260838167
PrefabInstance:
  m_ObjectHideFlags: 0
  serializedVersion: 2
  m_Modification:
    m_TransformParent: {fileID: 0}
    m_Modifications:
    - target: {fileID: 5431972550776936684, guid: e0c1cd3561495af4dba5da1f08530876,
        type: 3}
      propertyPath: m_Name
      value: Target 2 Variant
      objectReference: {fileID: 0}
    - target: {fileID: 5431972550776936688, guid: e0c1cd3561495af4dba5da1f08530876,
        type: 3}
      propertyPath: m_LocalPosition.x
      value: 7
      objectReference: {fileID: 0}
    - target: {fileID: 5431972550776936688, guid: e0c1cd3561495af4dba5da1f08530876,
        type: 3}
      propertyPath: m_LocalPosition.y
      value: 0
      objectReference: {fileID: 0}
    - target: {fileID: 5431972550776936688, guid: e0c1cd3561495af4dba5da1f08530876,
        type: 3}
      propertyPath: m_LocalPosition.z
      value: 0
      objectReference: {fileID: 0}
    - target: {fileID: 5431972550776936688, guid: e0c1cd3561495af4dba5da1f08530876,
        type: 3}
      propertyPath: m_LocalRotation.x
      value: 0
      objectReference: {fileID: 0}
    - target: {fileID: 5431972550776936688, guid: e0c1cd3561495af4dba5da1f08530876,
        type: 3}
      propertyPath: m_LocalRotation.y
      value: -0.7071068
      objectReference: {fileID: 0}
    - target: {fileID: 5431972550776936688, guid: e0c1cd3561495af4dba5da1f08530876,
        type: 3}
      propertyPath: m_LocalRotation.z
      value: 0
      objectReference: {fileID: 0}
    - target: {fileID: 5431972550776936688, guid: e0c1cd3561495af4dba5da1f08530876,
        type: 3}
      propertyPath: m_LocalRotation.w
      value: 0.7071068
      objectReference: {fileID: 0}
    - target: {fileID: 5431972550776936688, guid: e0c1cd3561495af4dba5da1f08530876,
        type: 3}
      propertyPath: m_RootOrder
      value: 0
      objectReference: {fileID: 0}
    - target: {fileID: 5431972550776936688, guid: e0c1cd3561495af4dba5da1f08530876,
        type: 3}
      propertyPath: m_LocalEulerAnglesHint.x
      value: 0
      objectReference: {fileID: 0}
    - target: {fileID: 5431972550776936688, guid: e0c1cd3561495af4dba5da1f08530876,
        type: 3}
      propertyPath: m_LocalEulerAnglesHint.y
      value: -90
      objectReference: {fileID: 0}
    - target: {fileID: 5431972550776936688, guid: e0c1cd3561495af4dba5da1f08530876,
        type: 3}
      propertyPath: m_LocalEulerAnglesHint.z
      value: 0
      objectReference: {fileID: 0}
    - target: {fileID: 6258236878555646793, guid: e0c1cd3561495af4dba5da1f08530876,
        type: 3}
      propertyPath: m_Size.y
      value: 0.4
      objectReference: {fileID: 0}
    - target: {fileID: 144444313711583565, guid: e0c1cd3561495af4dba5da1f08530876,
        type: 3}
      propertyPath: m_Size.y
      value: 2.5
      objectReference: {fileID: 0}
    m_RemovedComponents: []
  m_SourcePrefab: {fileID: 100100000, guid: e0c1cd3561495af4dba5da1f08530876, type: 3}
